{
  "Discriminator": 4,
  "Data": {
    "StartSkillTable": [
      [0,2,1],
      [0,3,1],
      [0,4,1],
      [1,4,2],
      [1,5,3],
      [2,6,3],
      [2,8,4],
      [3,10,5],
      [4,12,6]
    ],
    "CombatAttribute": "Int",
    "MainAttributes": [
      "Int",
      "Chr"
    ]
  }
}